Filename,Description
WH_CLR_3V.jpg,"3 Vent Window Frame Color: White, Vinyl Color: Clear, Window Type: 3-Vent"
WH_CLR_4V.jpg,"4 Vent Window Frame Color: White, Vinyl Color: Clear, Window Type: 4-Vent"
WH_LGR_3V.jpg,"3 Vent Window Frame Color: White, Vinyl Color: Light Grey, Window Type: 3-Vent"
WH_LGR_4V.jpg,"4 Vent Window Frame Color: White, Vinyl Color: Light Grey, Window Type: 4-Vent"
WH_DGR_3V.jpg,"3 Vent Window Frame Color: White, Vinyl Color: Dark Grey, Window Type: 3-Vent"
WH_DGR_4V.jpg,"4 Vent Window Frame Color: White, Vinyl Color: Dark Grey, Window Type: 4-Vent"
WH_BRZ_3V.jpg,"3 Vent Window Frame Color: White, Vinyl Color: Bronze, Window Type: 3-Vent"
WH_BRZ_4V.jpg,"4 Vent Window Frame Color: White, Vinyl Color: Bronze, Window Type: 4-Vent"
TN_CLR_3V.jpg,"3 Vent Window Frame Color: Tan, Vinyl Color: Clear, Window Type: 3-Vent"
TN_CLR_4V.jpg,"4 Vent Window Frame Color: Tan, Vinyl Color: Clear, Window Type: 4-Vent"
TN_LGR_3V.jpg,"3 Vent Window Frame Color: Tan, Vinyl Color: Light Grey, Window Type: 3-Vent"
TN_LGR_4V.jpg,"4 Vent Window Frame Color: Tan, Vinyl Color: Light Grey, Window Type: 4-Vent"
TN_DGR_3V.jpg,"3 Vent Window Frame Color: Tan, Vinyl Color: Dark Grey, Window Type: 3-Vent"
TN_DGR_4V.jpg,"4 Vent Window Frame Color: Tan, Vinyl Color: Dark Grey, Window Type: 4-Vent"
TN_BRZ_3V.jpg,"3 Vent Window Frame Color: Tan, Vinyl Color: Bronze, Window Type: 3-Vent"
TN_BRZ_4V.jpg,"4 Vent Window Frame Color: Tan, Vinyl Color: Bronze, Window Type: 4-Vent"
CL_CLR_3V.jpg,"3 Vent Window Frame Color: Clay, Vinyl Color: Clear, Window Type: 3-Vent"
CL_CLR_4V.jpg,"4 Vent Window Frame Color: Clay, Vinyl Color: Clear, Window Type: 4-Vent"
CL_LGR_3V.jpg,"3 Vent Window Frame Color: Clay, Vinyl Color: Light Grey, Window Type: 3-Vent"
CL_LGR_4V.jpg,"4 Vent Window Frame Color: Clay, Vinyl Color: Light Grey, Window Type: 4-Vent"
CL_DGR_3V.jpg,"3 Vent Window Frame Color: Clay, Vinyl Color: Dark Grey, Window Type: 3-Vent"
CL_DGR_4V.jpg,"4 Vent Window Frame Color: Clay, Vinyl Color: Dark Grey, Window Type: 4-Vent"
CL_BRZ_3V.jpg,"3 Vent Window Frame Color: Clay, Vinyl Color: Bronze, Window Type: 3-Vent"
CL_BRZ_4V.jpg,"4 Vent Window Frame Color: Clay, Vinyl Color: Bronze, Window Type: 4-Vent"
BZ_CLR_3V.jpg,"3 Vent Window Frame Color: Bronze, Vinyl Color: Clear, Window Type: 3-Vent"
BZ_CLR_4V.jpg,"4 Vent Window Frame Color: Bronze, Vinyl Color: Clear, Window Type: 4-Vent"
BZ_LGR_3V.jpg,"3 Vent Window Frame Color: Bronze, Vinyl Color: Light Grey, Window Type: 3-Vent"
BZ_LGR_4V.jpg,"4 Vent Window Frame Color: Bronze, Vinyl Color: Light Grey, Window Type: 4-Vent"
BZ_DGR_3V.jpg,"3 Vent Window Frame Color: Bronze, Vinyl Color: Dark Grey, Window Type: 3-Vent"
BZ_DGR_4V.jpg,"4 Vent Window Frame Color: Bronze, Vinyl Color: Dark Grey, Window Type: 4-Vent"
BZ_BRZ_3V.jpg,"3 Vent Window Frame Color: Bronze, Vinyl Color: Bronze, Window Type: 3-Vent"
BZ_BRZ_4V.jpg,"4 Vent Window Frame Color: Bronze, Vinyl Color: Bronze, Window Type: 4-Vent"
BK_CLR_3V.jpg,"3 Vent Window Frame Color: Black, Vinyl Color: Clear, Window Type: 3-Vent"
BK_CLR_4V.jpg,"4 Vent Window Frame Color: Black, Vinyl Color: Clear, Window Type: 4-Vent"
BK_LGR_3V.jpg,"3 Vent Window Frame Color: Black, Vinyl Color: Light Grey, Window Type: 3-Vent"
BK_LGR_4V.jpg,"4 Vent Window Frame Color: Black, Vinyl Color: Light Grey, Window Type: 4-Vent"
BK_DGR_3V.jpg,"3 Vent Window Frame Color: Black, Vinyl Color: Dark Grey, Window Type: 3-Vent"
BK_DGR_4V.jpg,"4 Vent Window Frame Color: Black, Vinyl Color: Dark Grey, Window Type: 4-Vent"
BK_BRZ_3V.jpg,"3 Vent Window Frame Color: Black, Vinyl Color: Bronze, Window Type: 3-Vent"
BK_BRZ_4V.jpg,"4 Vent Window Frame Color: Black, Vinyl Color: Bronze, Window Type: 4-Vent"
WH_LipFrame_FGV.jpg,"Lip Frame Window Frame Color: White, Glass Type: FlexiGlaze Vinyl"
TN_LipFrame_FGV.jpg,"Lip Frame Window Frame Color: Tan, Glass Type: FlexiGlaze Vinyl"
CL_LipFrame_FGV.jpg,"Lip Frame Window Frame Color: Clay, Glass Type: FlexiGlaze Vinyl"
BZ_LipFrame_FGV.jpg,"Lip Frame Window Frame Color: Bronze, Glass Type: FlexiGlaze Vinyl"
BK_LipFrame_FGV.jpg,"Lip Frame Window Frame Color: Black, Glass Type: FlexiGlaze Vinyl"
WH_LipFrame_TG.jpg,"Lip Frame Window Frame Color: White, Glass Type: Tempered Glass"
TN_LipFrame_TG.jpg,"Lip Frame Window Frame Color: Tan, Glass Type: Tempered Glass"
CL_LipFrame_TG.jpg,"Lip Frame Window Frame Color: Clay, Glass Type: Tempered Glass"
BZ_LipFrame_TG.jpg,"Lip Frame Window Frame Color: Bronze, Glass Type: Tempered Glass"
BK_LipFrame_TG.jpg,"Lip Frame Window Frame Color: Black, Glass Type: Tempered Glass"
WH_LipFrame_SD.jpg,"Lip Frame Window Frame Color: White, Glass Type: Standard"
WH_LipFrame_BV.jpg,"Lip Frame Window Frame Color: White, Glass Type: Better View"
WH_LipFrame_SS.jpg,"Lip Frame Window Frame Color: White, Glass Type: Super Screen"
TN_LipFrame_SD.jpg,"Lip Frame Window Frame Color: Tan, Glass Type: Standard"
TN_LipFrame_BV.jpg,"Lip Frame Window Frame Color: Tan, Glass Type: Better View"
TN_LipFrame_SS.jpg,"Lip Frame Window Frame Color: Tan, Glass Type: Super Screen"
CL_LipFrame_SD.jpg,"Lip Frame Window Frame Color: Clay, Glass Type: Standard"
CL_LipFrame_BV.jpg,"Lip Frame Window Frame Color: Clay, Glass Type: Better View"
CL_LipFrame_SS.jpg,"Lip Frame Window Frame Color: Clay, Glass Type: Super Screen"
BZ_LipFrame_SD.jpg,"Lip Frame Window Frame Color: Bronze, Glass Type: Standard"
BZ_LipFrame_BV.jpg,"Lip Frame Window Frame Color: Bronze, Glass Type: Better View"
BZ_LipFrame_SS.jpg,"Lip Frame Window Frame Color: Bronze, Glass Type: Super Screen"
BK_LipFrame_SD.jpg,"Lip Frame Window Frame Color: Black, Glass Type: Standard"
BK_LipFrame_BV.jpg,"Lip Frame Window Frame Color: Black, Glass Type: Better View"
BK_LipFrame_SS.jpg,"Lip Frame Window Frame Color: Black, Glass Type: Super Screen"
WH_cabanadoor.jpg,Cabana Door Frame Color: white
TN_cabanadoor.jpg,Cabana Door Frame Color: tan
CL_cabanadoor.jpg,Cabana Door Frame Color: clay
BZ_cabanadoor.jpg,Cabana Door Frame Color: bronze
BK_cabanadoor.jpg,Cabana Door Frame Color: black
